<?xml version="1.0" encoding="UTF-8" standalone="no"?>
<svg
   xmlns:dc="http://purl.org/dc/elements/1.1/"
   xmlns:cc="http://creativecommons.org/ns#"
   xmlns:rdf="http://www.w3.org/1999/02/22-rdf-syntax-ns#"
   xmlns:svg="http://www.w3.org/2000/svg"
   xmlns="http://www.w3.org/2000/svg"
   xmlns:sodipodi="http://sodipodi.sourceforge.net/DTD/sodipodi-0.dtd"
   xmlns:inkscape="http://www.inkscape.org/namespaces/inkscape"
   width="120.95238mm"
   height="120.95238mm"
   viewBox="0 0 120.95238 120.95238"
   version="1.1"
   id="svg8"
   inkscape:version="1.0.1 (3bc2e813f5, 2020-09-07)"
   sodipodi:docname="WindowSource.svg"
   inkscape:export-filename="E:\projects\GodotBS-PoC-4x\Sources\Icons\WindowSource.small.png"
   inkscape:export-xdpi="3.3600001"
   inkscape:export-ydpi="3.3600001">
  <defs
     id="defs2" />
  <sodipodi:namedview
     id="base"
     pagecolor="#ffffff"
     bordercolor="#666666"
     borderopacity="1.0"
     inkscape:pageopacity="0.0"
     inkscape:pageshadow="2"
     inkscape:zoom="0.94828128"
     inkscape:cx="21.739297"
     inkscape:cy="176.6655"
     inkscape:document-units="mm"
     inkscape:current-layer="layer1"
     inkscape:document-rotation="0"
     showgrid="false"
     fit-margin-top="0"
     fit-margin-left="0"
     fit-margin-right="0"
     fit-margin-bottom="0"
     inkscape:window-width="1920"
     inkscape:window-height="1057"
     inkscape:window-x="-8"
     inkscape:window-y="-8"
     inkscape:window-maximized="1"
     inkscape:snap-global="false" />
  <metadata
     id="metadata5">
    <rdf:RDF>
      <cc:Work
         rdf:about="">
        <dc:format>image/svg+xml</dc:format>
        <dc:type
           rdf:resource="http://purl.org/dc/dcmitype/StillImage" />
        <dc:title></dc:title>
      </cc:Work>
    </rdf:RDF>
  </metadata>
  <g
     inkscape:label="Layer 1"
     inkscape:groupmode="layer"
     id="layer1"
     transform="translate(3.0238097,-16.630953)">
    <rect
       style="opacity:0.812903;fill:#666666;fill-opacity:0.330645;stroke-width:0.25"
       id="rect833"
       width="120.95238"
       height="120.95238"
       x="-3.0238097"
       y="16.630953"
       ry="18.048363" />
    <path
       id="rect842"
       style="opacity:1;fill:#ffffff;fill-opacity:0.971774;stroke-width:0.944882"
       d="m 49.912109,66.699219 c -12.899512,0 -23.285156,10.385644 -23.285156,23.285156 V 367.1582 c 0,12.89953 10.385644,23.28516 23.285156,23.28516 H 407.23047 c 12.89953,0 23.28515,-10.38563 23.28515,-23.28516 V 89.984375 c 0,-12.899512 -10.38562,-23.285156 -23.28515,-23.285156 z M 66.810547,89.0625 H 390.33203 c 11.00871,0 19.87109,8.86239 19.87109,19.87109 v 242.54688 c 0,11.0087 -8.86238,19.87109 -19.87109,19.87109 H 66.810547 c -11.008702,0 -19.871094,-8.86239 -19.871094,-19.87109 V 108.93359 c 0,-11.0087 8.862392,-19.87109 19.871094,-19.87109 z"
       transform="matrix(0.26458333,0,0,0.26458333,-3.0238097,16.630953)"
       sodipodi:nodetypes="ssssssssssssssssss" />
    <path
       id="rect868"
       style="opacity:1;fill:#5fd35f;fill-opacity:0.971774;stroke-width:0.200714"
       d="m 19.046907,43.742917 c -2.714366,0 -4.899319,2.185502 -4.899319,4.899868 v 58.323905 c 0,2.71437 2.184953,4.89987 4.899319,4.89987 h 76.810871 c 2.714366,0 4.899322,-2.1855 4.899322,-4.89987 V 48.642785 c 0,-2.714366 -2.184956,-4.899868 -4.899322,-4.899868 z m 33.922211,3.493871 a 8.0822496,8.0822496 0 0 1 0.02578,0 8.0822496,8.0822496 0 0 1 8.082701,8.08215 8.0822496,8.0822496 0 0 1 -8.082701,8.082149 8.0822496,8.0822496 0 0 1 -8.082149,-8.082149 8.0822496,8.0822496 0 0 1 8.056368,-8.08215 z m 18.130392,0 a 8.0822496,8.0822496 0 0 1 0.02578,0 8.0822496,8.0822496 0 0 1 8.0827,8.08215 8.0822496,8.0822496 0 0 1 -8.0827,8.082149 8.0822496,8.0822496 0 0 1 -8.08215,-8.082149 8.0822496,8.0822496 0 0 1 8.05637,-8.08215 z m 18.130391,0 a 8.0822496,8.0822496 0 0 1 0.02633,0 8.0822496,8.0822496 0 0 1 8.08215,8.08215 8.0822496,8.0822496 0 0 1 -8.08215,8.082149 8.0822496,8.0822496 0 0 1 -8.0827,-8.082149 8.0822496,8.0822496 0 0 1 8.05637,-8.08215 z" />
    <circle
       style="opacity:1;fill:#ffffff;fill-opacity:0.971774;stroke-width:0.169628"
       id="path873"
       cx="89.256012"
       cy="55.318951"
       r="5.6794186" />
    <circle
       style="opacity:1;fill:#ffffff;fill-opacity:0.971774;stroke-width:0.169628"
       id="circle885"
       cx="71.125549"
       cy="55.318951"
       r="5.6794186" />
    <circle
       style="opacity:1;fill:#ffffff;fill-opacity:0.971774;stroke-width:0.169628"
       id="circle889"
       cx="52.995106"
       cy="55.318951"
       r="5.6794186" />
  </g>
</svg>
