<?xml version="1.0" encoding="UTF-8" standalone="no"?>
<svg
   xmlns:dc="http://purl.org/dc/elements/1.1/"
   xmlns:cc="http://creativecommons.org/ns#"
   xmlns:rdf="http://www.w3.org/1999/02/22-rdf-syntax-ns#"
   xmlns:svg="http://www.w3.org/2000/svg"
   xmlns="http://www.w3.org/2000/svg"
   xmlns:sodipodi="http://sodipodi.sourceforge.net/DTD/sodipodi-0.dtd"
   xmlns:inkscape="http://www.inkscape.org/namespaces/inkscape"
   width="120.95238mm"
   height="120.95238mm"
   viewBox="0 0 120.95238 120.95238"
   version="1.1"
   id="svg8"
   inkscape:version="1.0.1 (3bc2e813f5, 2020-09-07)"
   sodipodi:docname="WindowSource.small.svg"
   inkscape:export-filename="E:\projects\GodotBS-PoC-4x\Sources\Icons\WindowSource.small.png"
   inkscape:export-xdpi="3.3600001"
   inkscape:export-ydpi="3.3600001">
  <defs
     id="defs2" />
  <sodipodi:namedview
     id="base"
     pagecolor="#ffffff"
     bordercolor="#666666"
     borderopacity="1.0"
     inkscape:pageopacity="0.0"
     inkscape:pageshadow="2"
     inkscape:zoom="0.94828128"
     inkscape:cx="21.739297"
     inkscape:cy="176.6655"
     inkscape:document-units="mm"
     inkscape:current-layer="layer1"
     inkscape:document-rotation="0"
     showgrid="false"
     fit-margin-top="0"
     fit-margin-left="0"
     fit-margin-right="0"
     fit-margin-bottom="0"
     inkscape:window-width="1920"
     inkscape:window-height="1057"
     inkscape:window-x="-8"
     inkscape:window-y="-8"
     inkscape:window-maximized="1"
     inkscape:snap-global="false" />
  <metadata
     id="metadata5">
    <rdf:RDF>
      <cc:Work
         rdf:about="">
        <dc:format>image/svg+xml</dc:format>
        <dc:type
           rdf:resource="http://purl.org/dc/dcmitype/StillImage" />
        <dc:title></dc:title>
      </cc:Work>
    </rdf:RDF>
  </metadata>
  <g
     inkscape:label="Layer 1"
     inkscape:groupmode="layer"
     id="layer1"
     transform="translate(3.0238097,-16.630953)">
    <path
       id="rect868"
       style="opacity:1;fill:#5fd35f;fill-opacity:0.971774;stroke-width:1.01277"
       d="m 34.785156,59.337891 c -13.696175,0 -24.720703,11.028436 -24.720703,24.724609 v 294.29102 c 0,13.69617 11.024528,24.7246 24.720703,24.7246 H 422.35742 c 13.69618,0 24.7207,-11.02843 24.7207,-24.7246 V 84.0625 c 0,-13.696173 -11.02452,-24.724609 -24.7207,-24.724609 z m 12.748047,18.083984 c 7.496622,0.129592 11.519988,9.17393 -0.669922,30.525395 v 237.24804 c 0,10.42953 8.396634,18.82617 18.826172,18.82617 H 391.45312 c 10.42957,0 18.82618,-8.39664 18.82618,-18.82617 V 158.18164 h 19.70898 v 199.73438 c 0,13.69878 -11.02778,24.72656 -24.72656,24.72656 H 51.880859 c -13.698771,0 -24.726562,-11.02778 -24.726562,-24.72656 V 103.22656 C 27.63681,87.248241 39.552928,77.283923 47.533203,77.421875 Z m 166.546877,1.669922 c 15.82694,-5.15e-4 28.65764,12.82931 28.6582,28.656253 5.1e-4,15.8277 -12.8305,28.65872 -28.6582,28.6582 -15.82694,-5.6e-4 -28.65677,-12.83126 -28.65625,-28.6582 5.6e-4,-15.826182 12.83007,-28.655691 28.65625,-28.656253 z m 91.48437,0 c 15.82618,5.62e-4 28.65569,12.830071 28.65625,28.656253 5.1e-4,15.82694 -12.82931,28.65764 -28.65625,28.6582 -15.8277,5.2e-4 -28.65872,-12.8305 -28.6582,-28.6582 5.6e-4,-15.826943 12.83126,-28.656768 28.6582,-28.656253 z m 91.48243,0 c 15.82616,5.67e-4 28.65569,12.830075 28.65624,28.656253 5.1e-4,15.82693 -12.82932,28.65763 -28.65624,28.6582 -15.8277,5.2e-4 -28.65873,-12.8305 -28.65821,-28.6582 5.6e-4,-15.826947 12.83127,-28.656774 28.65821,-28.656253 z"
       transform="matrix(0.26458333,0,0,0.26458333,-3.0238097,16.630953)"
       sodipodi:nodetypes="sssssssssscssssccsssscscssscssssssssss" />
  </g>
</svg>
