<?xml version="1.0" encoding="UTF-8" standalone="no"?>
<svg
   xmlns:dc="http://purl.org/dc/elements/1.1/"
   xmlns:cc="http://creativecommons.org/ns#"
   xmlns:rdf="http://www.w3.org/1999/02/22-rdf-syntax-ns#"
   xmlns:svg="http://www.w3.org/2000/svg"
   xmlns="http://www.w3.org/2000/svg"
   xmlns:sodipodi="http://sodipodi.sourceforge.net/DTD/sodipodi-0.dtd"
   xmlns:inkscape="http://www.inkscape.org/namespaces/inkscape"
   width="120.95238mm"
   height="120.95238mm"
   viewBox="0 0 120.95238 120.95238"
   version="1.1"
   id="svg8"
   inkscape:version="1.0.1 (3bc2e813f5, 2020-09-07)"
   sodipodi:docname="locked.svg"
   inkscape:export-filename="E:\projects\GodotBS-PoC-4x\hidden.png"
   inkscape:export-xdpi="3.3600001"
   inkscape:export-ydpi="3.3600001">
  <defs
     id="defs2" />
  <sodipodi:namedview
     id="base"
     pagecolor="#ffffff"
     bordercolor="#666666"
     borderopacity="1.0"
     inkscape:pageopacity="0.0"
     inkscape:pageshadow="2"
     inkscape:zoom="0.7"
     inkscape:cx="127.56559"
     inkscape:cy="308.08744"
     inkscape:document-units="mm"
     inkscape:current-layer="layer1"
     inkscape:document-rotation="0"
     showgrid="false"
     fit-margin-top="0"
     fit-margin-left="0"
     fit-margin-right="0"
     fit-margin-bottom="0"
     inkscape:window-width="1920"
     inkscape:window-height="1057"
     inkscape:window-x="-8"
     inkscape:window-y="-8"
     inkscape:window-maximized="1"
     inkscape:snap-global="true" />
  <metadata
     id="metadata5">
    <rdf:RDF>
      <cc:Work
         rdf:about="">
        <dc:format>image/svg+xml</dc:format>
        <dc:type
           rdf:resource="http://purl.org/dc/dcmitype/StillImage" />
        <dc:title></dc:title>
      </cc:Work>
    </rdf:RDF>
  </metadata>
  <g
     inkscape:label="Layer 1"
     inkscape:groupmode="layer"
     id="layer1"
     transform="translate(3.0238097,-16.630953)">
    <path
       id="rect1476"
       style="opacity:1;fill:#666666;fill-opacity:1;stroke:none;stroke-width:28.308;stroke-linecap:round;stroke-miterlimit:4;stroke-dasharray:none"
       d="M 105.44922 182.85742 C 91.746107 182.85742 80.714844 193.88868 80.714844 207.5918 L 80.714844 392.4082 C 80.714844 406.1113 91.746107 417.14258 105.44922 417.14258 L 351.69336 417.14258 C 365.39647 417.14258 376.42773 406.1113 376.42773 392.4082 L 376.42773 207.5918 C 376.42773 193.88868 365.39647 182.85742 351.69336 182.85742 L 105.44922 182.85742 z M 218.00781 228.57227 L 239.13672 228.57227 C 247.92541 228.57227 255 235.64686 255 244.43555 L 255 295.89453 A 44.285717 44.285717 0 0 1 272.85742 331.42773 A 44.285717 44.285717 0 0 1 228.57227 375.71484 A 44.285717 44.285717 0 0 1 184.28516 331.42773 A 44.285717 44.285717 0 0 1 202.14258 295.89453 L 202.14258 244.43555 C 202.14258 235.64686 209.21912 228.57227 218.00781 228.57227 z "
       transform="matrix(0.26458333,0,0,0.26458333,-3.0238097,16.630953)" />
    <path
       id="path1483"
       style="color:#000000;font-style:normal;font-variant:normal;font-weight:normal;font-stretch:normal;font-size:medium;line-height:normal;font-family:sans-serif;font-variant-ligatures:normal;font-variant-position:normal;font-variant-caps:normal;font-variant-numeric:normal;font-variant-alternates:normal;font-variant-east-asian:normal;font-feature-settings:normal;font-variation-settings:normal;text-indent:0;text-align:start;text-decoration:none;text-decoration-line:none;text-decoration-style:solid;text-decoration-color:#000000;letter-spacing:normal;word-spacing:normal;text-transform:none;writing-mode:lr-tb;direction:ltr;text-orientation:mixed;dominant-baseline:auto;baseline-shift:baseline;text-anchor:start;white-space:normal;shape-padding:0;shape-margin:0;inline-size:0;clip-rule:nonzero;display:inline;overflow:visible;visibility:visible;opacity:1;isolation:auto;mix-blend-mode:normal;color-interpolation:sRGB;color-interpolation-filters:linearRGB;solid-color:#000000;solid-opacity:1;vector-effect:none;fill:#666666;fill-opacity:1;fill-rule:nonzero;stroke:none;stroke-width:45.3543;stroke-linecap:round;stroke-linejoin:miter;stroke-miterlimit:4;stroke-dasharray:none;stroke-dashoffset:0;stroke-opacity:1;color-rendering:auto;image-rendering:auto;shape-rendering:auto;text-rendering:auto;enable-background:accumulate;stop-color:#000000;stop-opacity:1"
       d="M 154.01758 35.898438 C 128.14355 35.898438 106.61133 57.430658 106.61133 83.304688 L 106.61133 200 L 151.96484 200 L 151.96484 83.304688 C 151.96484 81.772448 152.48534 81.251953 154.01758 81.251953 L 303.12305 81.251953 C 304.65529 81.251953 305.18359 81.772452 305.18359 83.304688 L 305.18359 200 L 350.53711 200 L 350.53711 83.304688 C 350.53711 57.430654 328.99708 35.898438 303.12305 35.898438 L 154.01758 35.898438 z "
       transform="matrix(0.26458333,0,0,0.26458333,-3.0238097,16.630953)" />
  </g>
</svg>
