<?xml version="1.0" encoding="UTF-8" standalone="no"?>
<svg
   xmlns:dc="http://purl.org/dc/elements/1.1/"
   xmlns:cc="http://creativecommons.org/ns#"
   xmlns:rdf="http://www.w3.org/1999/02/22-rdf-syntax-ns#"
   xmlns:svg="http://www.w3.org/2000/svg"
   xmlns="http://www.w3.org/2000/svg"
   xmlns:sodipodi="http://sodipodi.sourceforge.net/DTD/sodipodi-0.dtd"
   xmlns:inkscape="http://www.inkscape.org/namespaces/inkscape"
   width="120.95238mm"
   height="120.95238mm"
   viewBox="0 0 120.95238 120.95238"
   version="1.1"
   id="svg8"
   inkscape:version="1.0.1 (3bc2e813f5, 2020-09-07)"
   sodipodi:docname="transition_from.svg"
   inkscape:export-filename="E:\projects\beamster\Assets\Images\transition_from.png"
   inkscape:export-xdpi="3.3600001"
   inkscape:export-ydpi="3.3600001">
  <defs
     id="defs2" />
  <sodipodi:namedview
     id="base"
     pagecolor="#ffffff"
     bordercolor="#666666"
     borderopacity="1.0"
     inkscape:pageopacity="0.0"
     inkscape:pageshadow="2"
     inkscape:zoom="0.67053612"
     inkscape:cx="484.44759"
     inkscape:cy="-157.99651"
     inkscape:document-units="mm"
     inkscape:current-layer="layer1"
     inkscape:document-rotation="0"
     showgrid="false"
     fit-margin-top="0"
     fit-margin-left="0"
     fit-margin-right="0"
     fit-margin-bottom="0"
     inkscape:window-width="1920"
     inkscape:window-height="1057"
     inkscape:window-x="-8"
     inkscape:window-y="-8"
     inkscape:window-maximized="1"
     inkscape:snap-global="true" />
  <metadata
     id="metadata5">
    <rdf:RDF>
      <cc:Work
         rdf:about="">
        <dc:format>image/svg+xml</dc:format>
        <dc:type
           rdf:resource="http://purl.org/dc/dcmitype/StillImage" />
        <dc:title></dc:title>
      </cc:Work>
    </rdf:RDF>
  </metadata>
  <g
     inkscape:label="Layer 1"
     inkscape:groupmode="layer"
     id="layer1"
     transform="translate(3.0238097,-16.630953)">
    <path
       id="path2323"
       style="fill:#f8ce0b;fill-opacity:1;stroke-width:7.44878;stroke-linecap:round"
       inkscape:transform-center-x="9.8431096"
       inkscape:transform-center-y="1.6040979e-06"
       d="M 239.90234 62.425781 L 128.29492 145.49805 L 16.689453 228.57227 L 128.29492 311.64453 L 239.90234 394.71875 L 239.90234 302.16406 L 271.76172 302.16406 L 311.19922 154.97852 L 239.90234 154.97852 L 239.90234 62.425781 z M 439.96875 154.97852 L 400.53125 302.16406 L 440.45508 302.16406 L 440.45508 154.97852 L 439.96875 154.97852 z "
       transform="matrix(0.26458333,0,0,0.26458333,-3.0238097,16.630953)" />
    <rect
       style="fill:#f8ce0b;fill-opacity:1;stroke-width:2.03497;stroke-linecap:round"
       id="rect2364"
       width="17.164436"
       height="77.207298"
       x="103.21046"
       y="29.59066"
       ry="2.6552773"
       transform="matrix(1,0,-0.25881905,0.96592583,0,0)" />
    <circle
       style="fill:#f8ce0b;fill-opacity:1;stroke-width:3.7181;stroke-linecap:round"
       id="path2362"
       cx="80.447792"
       cy="120.42608"
       r="12.287008" />
    <path
       sodipodi:type="star"
       style="fill:#f8ce0b;fill-opacity:1;stroke-width:2;stroke-linecap:round"
       id="path2379"
       sodipodi:sides="3"
       sodipodi:cx="75.820702"
       sodipodi:cy="74.628441"
       sodipodi:r1="45.366985"
       sodipodi:r2="22.683493"
       sodipodi:arg1="0.52359878"
       sodipodi:arg2="1.5707963"
       inkscape:flatsided="false"
       inkscape:rounded="0"
       inkscape:randomized="0"
       d="m 115.10966,97.311934 -39.288958,0 -39.288962,-10e-7 19.64448,-34.025238 19.644482,-34.025239 19.64448,34.025238 z"
       transform="matrix(0,1.1188795,0.86786498,0,-23.608651,-162.00973)"
       inkscape:transform-center-x="9.8431096"
       inkscape:transform-center-y="1.6040979e-06" />
    <rect
       style="fill:#f8ce0b;fill-opacity:1;stroke-width:2.465;stroke-linecap:round"
       id="rect2381"
       width="80.623459"
       height="38.942669"
       x="-113.90759"
       y="-96.646835"
       transform="scale(-1,1)" />
    <rect
       style="fill:#ffffff;fill-opacity:1;stroke-width:2.30875;stroke-linecap:round"
       id="rect2383"
       width="9.9846964"
       height="9.9846964"
       x="-55.290142"
       y="-82.285454"
       transform="scale(-1,1)" />
    <rect
       style="fill:#ffffff;fill-opacity:1;stroke-width:2.30875;stroke-linecap:round"
       id="rect2385"
       width="9.9846964"
       height="9.9846964"
       x="-41.634762"
       y="-94.202675"
       transform="scale(-1,1)" />
    <rect
       style="fill:#ffffff;fill-opacity:1;stroke-width:2.30875;stroke-linecap:round"
       id="rect2387"
       width="9.9846964"
       height="9.9846964"
       x="-41.634762"
       y="-70.046158"
       transform="scale(-1,1)" />
    <rect
       style="fill:#ffffff;fill-opacity:1;stroke-width:2.30875;stroke-linecap:round"
       id="rect2389"
       width="9.9846964"
       height="9.9846964"
       x="-28.556919"
       y="-82.285454"
       transform="scale(-1,1)" />
    <rect
       style="fill:#ffffff;fill-opacity:1;stroke-width:2.30875;stroke-linecap:round"
       id="rect2391"
       width="9.9846964"
       height="9.9846964"
       x="-55.290142"
       y="-106.44197"
       transform="scale(-1,1)" />
    <rect
       style="fill:#ffffff;fill-opacity:1;stroke-width:2.30875;stroke-linecap:round"
       id="rect2393"
       width="9.9846964"
       height="9.9846964"
       x="-55.290142"
       y="-58.128937"
       transform="scale(-1,1)" />
    <path
       id="path2395"
       style="fill:#ffffff;fill-opacity:1;stroke-width:2.03497;stroke-linecap:round"
       sodipodi:type="inkscape:offset"
       inkscape:radius="4.6977983"
       inkscape:original="M 105.86523 29.589844 C 104.39421 29.589844 103.21094 30.775071 103.21094 32.246094 L 103.21094 104.14258 C 103.21094 105.6136 104.39421 106.79883 105.86523 106.79883 L 117.71875 106.79883 C 119.18977 106.79883 120.375 105.6136 120.375 104.14258 L 120.375 32.246094 C 120.375 30.775071 119.18977 29.589844 117.71875 29.589844 L 105.86523 29.589844 z "
       d="m 105.86523,24.892578 c -3.99442,0 -7.351558,3.363265 -7.351558,7.353516 v 71.896486 c 0,3.99025 3.357138,7.35351 7.351558,7.35351 h 11.85352 c 3.99443,0 7.35352,-3.35909 7.35352,-7.35351 V 32.246094 c 0,-3.994424 -3.3591,-7.353516 -7.35352,-7.353516 z"
       transform="matrix(1,0,-0.25881905,0.96592583,0.39458476,-154.28264)" />
    <rect
       style="fill:#f8ce0b;fill-opacity:1;stroke-width:2.03497;stroke-linecap:round"
       id="rect2397"
       width="17.164436"
       height="77.207298"
       x="62.265133"
       y="-130.13448"
       ry="2.6552773"
       transform="matrix(1,0,-0.25881905,0.96592583,0,0)" />
    <circle
       style="fill:#f8ce0b;fill-opacity:1;stroke-width:3.7181;stroke-linecap:round"
       id="circle2399"
       cx="80.842377"
       cy="-33.85656"
       r="12.287008" />
    <path
       sodipodi:type="star"
       style="fill:#f8ce0b;fill-opacity:1;stroke-width:2;stroke-linecap:round"
       id="path2418"
       sodipodi:sides="3"
       sodipodi:cx="75.820702"
       sodipodi:cy="74.628441"
       sodipodi:r1="45.366985"
       sodipodi:r2="22.683493"
       sodipodi:arg1="0.52359878"
       sodipodi:arg2="1.5707963"
       inkscape:flatsided="false"
       inkscape:rounded="0"
       inkscape:randomized="0"
       d="m 115.10966,97.311934 -39.288958,0 -39.288962,-10e-7 19.64448,-34.025238 19.644482,-34.025239 19.64448,34.025238 z"
       transform="matrix(0,1.1188795,0.86786498,0,142.90612,-160.82597)"
       inkscape:transform-center-x="9.8431096"
       inkscape:transform-center-y="1.6040979e-06" />
    <rect
       style="fill:#f8ce0b;fill-opacity:1;stroke-width:2.465;stroke-linecap:round"
       id="rect2420"
       width="80.623459"
       height="38.942669"
       x="-280.42236"
       y="-95.463081"
       transform="scale(-1,1)" />
    <rect
       style="fill:#ffffff;fill-opacity:1;stroke-width:2.30875;stroke-linecap:round"
       id="rect2422"
       width="9.9846964"
       height="9.9846964"
       x="-221.80492"
       y="-81.1017"
       transform="scale(-1,1)" />
    <rect
       style="fill:#ffffff;fill-opacity:1;stroke-width:2.30875;stroke-linecap:round"
       id="rect2424"
       width="9.9846964"
       height="9.9846964"
       x="-208.14954"
       y="-93.018921"
       transform="scale(-1,1)" />
    <rect
       style="fill:#ffffff;fill-opacity:1;stroke-width:2.30875;stroke-linecap:round"
       id="rect2426"
       width="9.9846964"
       height="9.9846964"
       x="-208.14954"
       y="-68.862404"
       transform="scale(-1,1)" />
    <rect
       style="fill:#ffffff;fill-opacity:1;stroke-width:2.30875;stroke-linecap:round"
       id="rect2428"
       width="9.9846964"
       height="9.9846964"
       x="-195.07169"
       y="-81.1017"
       transform="scale(-1,1)" />
    <rect
       style="fill:#ffffff;fill-opacity:1;stroke-width:2.30875;stroke-linecap:round"
       id="rect2430"
       width="9.9846964"
       height="9.9846964"
       x="-221.80492"
       y="-105.25822"
       transform="scale(-1,1)" />
    <rect
       style="fill:#ffffff;fill-opacity:1;stroke-width:2.30875;stroke-linecap:round"
       id="rect2432"
       width="9.9846964"
       height="9.9846964"
       x="-221.80492"
       y="-56.945183"
       transform="scale(-1,1)" />
    <path
       id="path2434"
       style="fill:#ffffff;fill-opacity:1;stroke-width:2.03497;stroke-linecap:round"
       sodipodi:type="inkscape:offset"
       inkscape:radius="8.4523945"
       inkscape:original="M 105.86523 29.589844 C 104.39421 29.589844 103.21094 30.775071 103.21094 32.246094 L 103.21094 104.14258 C 103.21094 105.6136 104.39421 106.79883 105.86523 106.79883 L 117.71875 106.79883 C 119.18977 106.79883 120.375 105.6136 120.375 104.14258 L 120.375 32.246094 C 120.375 30.775071 119.18977 29.589844 117.71875 29.589844 L 105.86523 29.589844 z "
       d="m 105.86523,21.136719 c -6.011179,0 -11.107418,5.105694 -11.107418,11.109375 v 71.896486 c 0,6.00368 5.096228,11.10937 11.107418,11.10937 h 11.85352 c 6.01119,0 11.10937,-5.09818 11.10937,-11.10937 V 32.246094 c 10e-6,-6.011189 -5.09819,-11.109375 -11.10937,-11.109375 z"
       transform="matrix(1,0,-0.25881905,0.96592583,166.90935,-153.09889)" />
    <rect
       style="fill:#f8ce0b;fill-opacity:1;stroke-width:2.03497;stroke-linecap:round"
       id="rect2436"
       width="17.164436"
       height="77.207298"
       x="229.09709"
       y="-128.90897"
       ry="2.6552773"
       transform="matrix(1,0,-0.25881905,0.96592583,0,0)" />
    <circle
       style="fill:#f8ce0b;fill-opacity:1;stroke-width:3.7181;stroke-linecap:round"
       id="circle2438"
       cx="247.35715"
       cy="-32.672806"
       r="12.287008" />
  </g>
</svg>
