[gd_resource type="StyleBoxFlat" format=3 uid="uid://xyoaelx2v6a1"]

[resource]
content_margin_left = 2.0
content_margin_top = 2.0
content_margin_right = 2.0
content_margin_bottom = 2.0
bg_color = Color(0.666667, 0.505882, 0.898039, 0.572549)
